parte_d/simulation/qsim/parte_d.msim.vcd
$comment
	File created using the following command:
		vcd file parte_d.msim.vcd -direction
$end
$date
	Wed Nov 06 20:13:57 2024
$end
$version
	ModelSim Version 10.1d
$end
$timescale
	1ps
$end
$scope module ejercicio2_vlg_vec_tst $end
$var reg 1 ! clock $end
$var reg 1 " reset $end
$var reg 1 # X $end
$var wire 1 $ output1 $end
$var wire 1 % output2 $end
$var wire 1 & output3 $end
$var wire 1 ' output4 $end
$var wire 1 ( sampler $end
$scope module i1 $end
$var wire 1 ) gnd $end
$var wire 1 * vcc $end
$var wire 1 + unknown $end
$var tri1 1 , devclrn $end
$var tri1 1 - devpor $end
$var tri1 1 . devoe $end
$var wire 1 / reset~input_o $end
$var wire 1 0 clock~input_o $end
$var wire 1 1 clock~inputclkctrl_outclk $end
$var wire 1 2 output1~output_o $end
$var wire 1 3 output2~output_o $end
$var wire 1 4 output3~output_o $end
$var wire 1 5 output4~output_o $end
$var wire 1 6 X~input_o $end
$var wire 1 7 reg_fstate.C~0_combout $end
$var wire 1 8 fstate.C~q $end
$var wire 1 9 fstate.G~feeder_combout $end
$var wire 1 : fstate.G~q $end
$var wire 1 ; reg_fstate.B~0_combout $end
$var wire 1 < fstate.B~q $end
$var wire 1 = reg_fstate~5_combout $end
$var wire 1 > fstate.D~q $end
$var wire 1 ? reg_fstate.F~0_combout $end
$var wire 1 @ fstate.F~q $end
$var wire 1 A reg_fstate.E~0_combout $end
$var wire 1 B fstate.E~q $end
$var wire 1 C reg_fstate~4_combout $end
$var wire 1 D fstate.A~q $end
$var wire 1 E output1~0_combout $end
$var wire 1 F WideOr4~0_combout $end
$var wire 1 G WideOr2~0_combout $end
$var wire 1 H WideOr3~0_combout $end
$upscope $end
$upscope $end
$enddefinitions $end
#0
$dumpvars
0!
0"
1#
0$
1%
1&
0'
x(
0)
1*
x+
1,
1-
1.
0/
00
01
02
13
14
05
16
07
08
09
0:
1;
0<
1=
0>
0?
0@
0A
0B
0C
0D
1E
0F
1G
0H
$end
#5000
0#
06
0(
#10000
1!
10
11
1(
1>
1<
1A
0E
0=
1H
12
15
1$
1'
#15000
1#
16
0(
0A
1?
#20000
0!
00
01
1(
#30000
0#
1!
06
10
11
0(
1A
0?
1@
0>
1C
0A
0H
05
0'
#40000
1#
0!
16
00
01
1(
#45000
0#
06
0(
#50000
1!
1#
10
16
11
1(
1D
0@
1F
1E
17
0C
0G
03
02
04
0%
0$
0&
#55000
0#
06
0(
0;
07
#60000
0!
00
01
1(
#65000
1#
16
0(
1;
17
#70000
1!
0#
10
06
11
1(
0;
07
0D
18
0E
1;
19
12
1$
#75000
1#
16
0(
#80000
0!
00
01
1(
#90000
1!
10
11
0(
1:
08
1=
0F
09
13
1%
#95000
0#
06
1(
#100000
0!
1#
00
16
01
0(
#110000
1!
0#
10
06
11
1(
1>
0:
1A
0=
1H
1G
15
14
1'
1&
#120000
0!
00
01
0(
#125000
1#
16
1(
0A
1?
#130000
1!
0#
10
06
11
0(
1A
0?
1@
0>
1C
0A
0H
05
0'
#140000
0!
00
01
1(
#150000
1#
1!
16
10
11
0(
1D
0@
1F
1E
17
0C
0G
03
02
04
0%
0$
0&
#160000
0#
0!
06
00
01
1(
0;
07
#170000
1!
10
11
0(
0D
0<
0F
1;
1=
1G
13
14
1%
1&
#175000
1#
16
1(
#180000
0!
00
01
0(
#185000
0#
06
1(
#190000
1!
1#
10
16
11
0(
1>
1<
1?
0E
0=
1H
12
15
1$
1'
#195000
0#
06
1(
1A
0?
#200000
0!
1#
00
16
01
0(
0A
1?
#210000
1!
0#
10
06
11
1(
1A
0?
1@
0>
1C
0A
0H
05
0'
#220000
0!
1#
00
16
01
0(
#230000
1!
10
11
1(
1D
0@
1F
1E
17
0C
0G
03
02
04
0%
0$
0&
#235000
0#
06
0(
0;
07
#240000
0!
1#
00
16
01
1(
1;
17
#245000
0#
06
0(
0;
07
#250000
1!
1#
10
16
11
1(
1;
17
0D
0<
0F
07
1=
1G
13
14
1%
1&
#255000
0#
06
0(
#260000
0!
00
01
1(
#270000
1!
10
11
0(
1>
1<
1A
0E
0=
1H
12
15
1$
1'
#280000
1#
0!
16
00
01
1(
0A
1?
#285000
0#
06
0(
1A
0?
#290000
1!
1#
10
16
11
1(
0A
1?
1B
0>
1F
1C
0?
0G
03
04
0%
0&
#300000
0!
00
01
0(
#310000
1!
10
11
1(
1D
0B
1E
17
0C
0H
02
05
0$
0'
#320000
0!
00
01
0(
#330000
1!
10
11
1(
0D
18
0E
07
19
12
1$
#335000
0#
06
0(
#340000
0!
00
01
1(
#350000
1!
10
11
0(
1:
08
1=
0F
09
13
1%
#355000
1#
16
1(
#360000
0!
00
01
0(
#370000
0#
1!
06
10
11
1(
1>
0:
1A
0=
1H
1G
15
14
1'
1&
#380000
1#
0!
16
00
01
0(
0A
1?
#390000
0#
1!
06
10
11
1(
1A
0?
1@
0>
1C
0A
0H
05
0'
#395000
1#
16
0(
#400000
0!
00
01
1(
#405000
0#
06
0(
#410000
1!
1#
10
16
11
1(
1D
0@
1F
1E
17
0C
0G
03
02
04
0%
0$
0&
#420000
0!
0#
00
06
01
0(
0;
07
#425000
1#
16
1(
1;
17
#430000
1!
0#
10
06
11
0(
0;
07
0D
18
0E
1;
19
12
1$
#435000
1#
16
1(
#440000
0!
00
01
0(
#450000
1!
10
11
1(
1:
08
1=
0F
09
13
1%
#460000
0#
0!
06
00
01
0(
#465000
1#
16
1(
#470000
1!
10
11
0(
1>
0:
1?
0=
1H
1G
15
14
1'
1&
#475000
0#
06
1(
1A
0?
#480000
0!
00
01
0(
#485000
1#
16
1(
0A
1?
#490000
1!
10
11
0(
1@
0>
1C
0?
0H
05
0'
#500000
0#
0!
06
00
01
1(
#510000
1!
10
11
0(
1D
0@
1F
1E
0;
0C
0G
03
02
04
0%
0$
0&
#520000
1#
0!
16
00
01
1(
1;
17
#525000
0#
06
0(
0;
07
#530000
1!
10
11
1(
0D
0<
0F
1;
1=
1G
13
14
1%
1&
#535000
1#
16
0(
#540000
0!
0#
00
06
01
1(
#550000
1!
1#
10
16
11
0(
1>
1<
1?
0E
0=
1H
12
15
1$
1'
#560000
0!
0#
00
06
01
1(
1A
0?
#570000
1!
1#
10
16
11
0(
0A
1?
1B
0>
1F
1C
0?
0G
03
04
0%
0&
#580000
0!
00
01
1(
#590000
0#
1!
06
10
11
0(
1D
0B
1E
0;
0C
0H
02
05
0$
0'
#600000
1#
0!
16
00
01
1(
1;
17
#605000
0#
06
0(
0;
07
#610000
1!
10
11
1(
0D
0<
0F
1;
1=
1G
13
14
1%
1&
#615000
1#
16
0(
#620000
0!
00
01
1(
#630000
1!
10
11
0(
1>
1<
1?
0E
0=
1H
12
15
1$
1'
#640000
0#
0!
06
00
01
1(
1A
0?
#650000
1!
10
11
0(
1B
0>
1F
1C
0A
0G
03
04
0%
0&
#655000
1#
16
1(
#660000
0!
00
01
0(
#670000
0#
1!
06
10
11
1(
1D
0B
1E
0;
0C
0H
02
05
0$
0'
#675000
1#
16
0(
1;
17
#680000
0!
0#
00
06
01
1(
0;
07
#690000
1!
1#
10
16
11
0(
1;
17
0D
0<
0F
07
1=
1G
13
14
1%
1&
#695000
0#
06
1(
#700000
0!
1#
00
16
01
0(
#710000
1!
0#
10
06
11
1(
1>
1<
1A
0E
0=
1H
12
15
1$
1'
#715000
1#
16
0(
0A
1?
#720000
0!
00
01
1(
#730000
0#
1!
06
10
11
0(
1A
0?
1@
0>
1C
0A
0H
05
0'
#740000
1#
0!
16
00
01
1(
#750000
1!
10
11
0(
1D
0@
1F
1E
17
0C
0G
03
02
04
0%
0$
0&
#760000
0!
00
01
1(
#770000
1!
10
11
0(
0D
18
0E
07
19
12
1$
#775000
0#
06
1(
#780000
0!
00
01
0(
#785000
1#
16
1(
#790000
1!
0#
10
06
11
0(
1:
08
1=
0F
09
13
1%
#800000
0!
1#
00
16
01
1(
#810000
1!
10
11
0(
1>
0:
1?
0=
1H
1G
15
14
1'
1&
#815000
0#
06
1(
1A
0?
#820000
0!
00
01
0(
#830000
1#
1!
16
10
11
1(
0A
1?
1B
0>
1F
1C
0?
0G
03
04
0%
0&
#835000
0#
06
0(
#840000
0!
00
01
1(
#845000
1#
16
0(
#850000
1!
0#
10
06
11
1(
1D
0B
1E
0;
0C
0H
02
05
0$
0'
#860000
0!
00
01
0(
#865000
1#
16
1(
1;
17
#870000
1!
10
11
0(
0D
18
0E
07
19
12
1$
#880000
0#
0!
06
00
01
1(
#885000
1#
16
0(
#890000
1!
0#
10
06
11
1(
1:
08
1=
0F
09
13
1%
#895000
1#
16
0(
#900000
0!
0#
00
06
01
1(
#910000
1!
10
11
0(
1>
0:
1A
0=
1H
1G
15
14
1'
1&
#915000
1#
16
1(
0A
1?
#920000
0!
00
01
0(
#930000
0#
1!
06
10
11
1(
1A
0?
1@
0>
1C
0A
0H
05
0'
#935000
1#
16
0(
#940000
0!
00
01
1(
#945000
0#
06
0(
#950000
1!
10
11
1(
1D
0@
1F
1E
0;
0C
0G
03
02
04
0%
0$
0&
#955000
1#
16
0(
1;
17
#960000
0!
00
01
1(
#965000
0#
06
0(
0;
07
#970000
1!
1#
10
16
11
1(
1;
17
0D
0<
0F
07
1=
1G
13
14
1%
1&
#980000
0!
0#
00
06
01
0(
#990000
1!
1#
10
16
11
1(
1>
1<
1?
0E
0=
1H
12
15
1$
1'
#995000
0#
06
0(
1A
0?
