parte_c/simulation/qsim/parte_c.msim.vcd
$comment
	File created using the following command:
		vcd file parte_c.msim.vcd -direction
$end
$date
	Wed Nov 06 18:54:46 2024
$end
$version
	ModelSim Version 10.1d
$end
$timescale
	1ps
$end
$scope module Restador_Completo_4b_vlg_vec_tst $end
$var reg 1 ! a0 $end
$var reg 1 " a1 $end
$var reg 1 # a2 $end
$var reg 1 $ a3 $end
$var reg 1 % b0 $end
$var reg 1 & b1 $end
$var reg 1 ' b2 $end
$var reg 1 ( b3 $end
$var reg 1 ) bin $end
$var reg 1 * CLOCK $end
$var wire 1 + bout $end
$var wire 1 , z0 $end
$var wire 1 - z1 $end
$var wire 1 . z2 $end
$var wire 1 / z3 $end
$var wire 1 0 sampler $end
$scope module i1 $end
$var wire 1 1 gnd $end
$var wire 1 2 vcc $end
$var wire 1 3 unknown $end
$var tri1 1 4 devclrn $end
$var tri1 1 5 devpor $end
$var tri1 1 6 devoe $end
$var wire 1 7 CLOCK~input_o $end
$var wire 1 8 a3~input_o $end
$var wire 1 9 b3~input_o $end
$var wire 1 : a2~input_o $end
$var wire 1 ; b2~input_o $end
$var wire 1 < a1~input_o $end
$var wire 1 = b1~input_o $end
$var wire 1 > a0~input_o $end
$var wire 1 ? b0~input_o $end
$var wire 1 @ bin~input_o $end
$var wire 1 A bout~output_o $end
$var wire 1 B z3~output_o $end
$var wire 1 C z2~output_o $end
$var wire 1 D z1~output_o $end
$var wire 1 E z0~output_o $end
$upscope $end
$upscope $end
$enddefinitions $end
#0
$dumpvars
1!
0"
0#
0$
0%
1&
0'
0(
0)
0*
0+
0,
0-
0.
0/
x0
01
12
x3
14
15
16
07
08
09
0:
0;
0<
1=
1>
0?
0@
0A
0B
0C
0D
0E
$end
#5000
1#
0&
1(
1:
0=
19
00
#10000
0!
1"
1%
1'
1*
1&
0>
1<
1?
1;
17
1=
10
#15000
1$
0#
0(
1!
0"
0%
0'
18
0:
09
1>
0<
0?
0;
00
#20000
0*
0$
1#
0!
1%
07
08
1:
0>
1?
10
#25000
0&
1$
0#
1!
0=
18
0:
1>
00
#30000
1(
1*
0%
0$
0!
19
17
0?
08
0>
10
#35000
1&
0(
1%
1$
1!
1=
09
1?
18
1>
00
#40000
1'
1#
0*
1(
0%
0$
1;
1:
07
19
0?
08
10
#45000
1"
0'
0#
0(
1%
1$
1<
0;
0:
09
1?
18
00
#50000
0&
0!
1*
1'
1#
1(
0=
0>
17
1;
1:
19
10
#55000
0$
0'
08
0;
00
#60000
0"
1&
1!
0*
0(
1$
0<
1=
1>
07
09
18
10
#65000
0#
1"
0&
0$
0:
1<
0=
08
00
#70000
1'
0!
1*
1(
1;
0>
17
19
10
#75000
1$
0'
1!
0(
18
0;
1>
09
00
#80000
0%
1#
0"
0*
1'
0!
1(
0?
1:
0<
07
1;
0>
19
10
#85000
0#
0(
0:
09
00
#90000
1*
0'
17
0;
10
#95000
1%
1!
1#
1(
1?
1>
1:
19
00
#100000
1&
0$
0*
1'
0!
1=
08
07
1;
0>
10
#105000
1"
0#
0'
1<
0:
0;
00
#110000
0%
0&
1*
0"
1#
1'
0?
0=
17
0<
1:
1;
10
#115000
0(
1$
1%
1&
0#
09
18
1?
1=
0:
00
#120000
1!
0*
1"
0&
1#
1>
07
1<
0=
1:
10
#125000
0'
1(
0%
0"
1&
0#
0;
19
0?
0<
1=
0:
00
#130000
0!
1*
1'
0(
1%
1"
1#
0>
17
1;
09
1?
1<
1:
10
#135000
0$
1!
0#
08
1>
0:
00
#140000
0*
0!
1#
07
0>
1:
10
#145000
0'
1(
0"
1!
0#
0;
19
0<
1>
0:
00
#150000
0%
1$
1*
1'
0(
0!
0?
18
17
1;
09
0>
10
#155000
0&
1#
1!
0=
1:
1>
00
#160000
1"
1%
0$
0*
0'
1(
1<
1?
08
07
0;
19
10
#165000
1&
1=
00
#170000
0#
0!
0"
0%
1$
1*
1'
0(
0:
0>
0<
0?
18
17
1;
09
10
#175000
0&
1"
1%
0'
0=
1<
1?
0;
00
#180000
0$
0*
1&
0"
0%
1'
08
07
1=
0<
0?
1;
10
#185000
1#
1!
0&
0'
1:
1>
0=
0;
00
#190000
1*
0!
17
0>
10
#195000
1$
1"
1&
1'
1!
18
1<
1=
1;
1>
00
#200000
1(
1%
0#
0*
0"
0&
19
1?
0:
07
0<
0=
10
#205000
0'
0!
0(
0;
0>
09
00
#210000
0$
0%
1#
1*
1&
1'
08
0?
1:
17
1=
1;
10
#215000
1"
1!
1$
1%
0#
0&
0'
1<
1>
18
1?
0:
0=
0;
00
#220000
1(
0*
0"
0$
0%
1#
19
07
0<
08
0?
1:
10
#225000
1&
1'
1"
1=
1;
1<
00
#230000
1*
1$
0#
0'
17
18
0:
0;
10
#235000
0!
0(
0&
0$
1#
0>
09
0=
08
1:
00
#240000
1%
0*
1'
1!
1&
1$
1?
07
1;
1>
1=
18
10
#245000
0'
0!
0$
0;
0>
08
00
#250000
0"
0#
1*
1$
0<
0:
17
18
10
#255000
1(
0%
0&
1'
1!
1#
19
0?
0=
1;
1>
1:
00
#260000
1"
0*
1%
0#
1<
07
1?
0:
10
#265000
0$
0(
0!
0"
08
09
0>
0<
00
#270000
1&
1*
1$
1(
1!
1=
17
18
19
1>
10
#275000
0&
0(
0=
09
00
#280000
0'
0*
0$
1&
1(
0;
07
08
1=
19
10
#285000
1#
1"
1'
0&
0(
1:
1<
1;
0=
09
00
#290000
1*
0#
1&
17
0:
1=
10
#295000
1$
0"
1(
1#
0&
18
0<
19
1:
0=
00
#300000
0%
0!
0*
0$
1"
0(
0#
1&
0?
0>
07
08
1<
09
0:
1=
10
#305000
1(
1#
19
1:
00
#310000
1%
1*
0"
0&
0(
0#
1?
17
0<
0=
09
0:
10
#315000
1!
0%
1"
1&
1#
1>
0?
1<
1=
1:
00
#320000
0*
1%
0"
0&
07
1?
0<
0=
10
#325000
0'
1$
1(
0!
0#
0%
1&
0;
18
19
0>
0:
0?
1=
00
#330000
1*
1'
1%
17
1;
1?
10
#335000
0$
0(
1#
0&
08
09
1:
0=
00
#340000
1"
0*
1&
1<
07
1=
10
#345000
1$
1(
0"
18
19
0<
00
#350000
1!
0%
0#
1*
0&
1"
1>
0?
0:
17
0=
1<
10
#355000
0'
0(
0!
1%
0"
0;
09
0>
1?
0<
00
#360000
1#
0*
1'
1(
1!
0%
1:
07
1;
19
1>
0?
10
#365000
1"
0'
0(
1<
0;
09
00
#370000
0$
1&
1*
0!
1%
0"
1(
08
1=
17
0>
1?
0<
19
10
#375000
0#
1'
0&
0%
1"
0:
1;
0=
0?
1<
00
#380000
0*
1#
0'
1%
0"
07
1:
0;
1?
0<
10
#385000
1$
1!
0(
1&
0#
1'
18
1>
09
1=
0:
1;
00
#390000
1*
0%
0$
0&
17
0?
08
0=
10
#395000
1(
1#
0'
1%
1&
19
1:
0;
1?
1=
00
#400000
1"
0!
0*
0#
1'
0&
1<
0>
07
0:
1;
0=
10
#405000
0(
0"
1#
0'
09
0<
1:
0;
00
#410000
1$
1*
1(
18
17
19
10
#415000
0%
1!
0$
0?
1>
08
00
#420000
1&
1"
0#
0*
0(
1=
1<
0:
07
09
10
#425000
1'
1%
0&
1#
1;
1?
0=
1:
00
#430000
0!
1*
1(
0'
0#
0>
17
19
0;
0:
10
#435000
0"
0%
1&
1!
0(
0<
0?
1=
1>
09
00
#440000
0*
1#
1%
0&
1(
07
1:
1?
0=
19
10
#445000
0!
0#
0%
1&
0(
0>
0:
0?
1=
09
00
#450000
1'
1"
1*
1%
1(
1;
1<
17
1?
19
10
#455000
1#
0&
0(
1:
0=
09
00
#460000
1!
0*
0%
1&
1>
07
0?
1=
10
#465000
1$
0!
18
0>
00
#470000
0'
0#
1(
1*
1%
0&
0$
1!
0;
0:
19
17
1?
0=
08
1>
10
#475000
0"
0(
1&
1$
0<
09
1=
18
00
#480000
1'
1#
0*
1(
1;
1:
07
19
10
#485000
0&
0$
0'
0=
08
0;
00
#490000
0%
0!
1"
1*
0(
1&
1$
0?
0>
1<
17
09
1=
18
10
#495000
1!
0&
0$
1>
0=
08
00
#500000
1'
0"
0*
1(
1&
1;
0<
07
19
1=
10
#505000
0#
1%
1$
0'
1"
0:
1?
18
0;
1<
00
#510000
1*
0(
0&
1#
0%
0"
17
09
0=
1:
0?
0<
10
#515000
0!
1(
1&
0>
19
1=
00
#520000
0*
1%
1"
1!
0(
0&
07
1?
1<
1>
09
0=
10
#525000
0$
0#
1(
1&
08
0:
19
1=
00
#530000
1*
0%
0!
1$
0(
17
0?
0>
18
09
10
#535000
0"
1%
1!
1(
0<
1?
1>
19
00
#540000
1'
0&
0*
1"
0%
0!
1;
0=
07
1<
0?
0>
10
#545000
1#
0$
0(
1&
1%
1:
08
09
1=
1?
00
#550000
0'
1*
0"
1!
0#
1$
1(
0&
0%
0;
17
0<
1>
0:
18
19
0=
0?
10
#555000
1'
0!
1#
1&
1%
1;
0>
1:
1=
1?
00
#560000
0*
1"
0#
0&
07
1<
0:
0=
10
#565000
0$
0(
0'
0%
0"
1#
1&
08
09
0;
0?
0<
1:
1=
00
#570000
1!
1*
1$
1(
0#
0&
1>
17
18
19
0:
0=
10
#575000
1%
0!
0(
1&
1?
0>
09
1=
00
#580000
1'
1"
0*
0$
1!
1;
1<
07
08
1>
10
#585000
0&
0'
0"
1$
0=
0;
0<
18
00
#590000
1#
0%
1*
1"
0$
1:
0?
17
1<
08
10
#595000
0!
1'
0#
0>
1;
0:
00
#600000
1&
0*
0"
1!
0'
1=
07
0<
1>
0;
10
#605000
1(
1$
1#
0&
1'
19
18
1:
0=
1;
00
#610000
1%
1*
0$
1&
0'
1?
17
08
1=
0;
10
#615000
0!
0(
1$
0&
0>
09
18
0=
00
#620000
0%
0*
1!
0$
0?
07
1>
08
10
#625000
0#
1(
1$
0:
19
18
00
#630000
1"
1*
1#
1<
17
1:
10
#635000
1'
1&
0!
0$
0"
1;
1=
0>
08
0<
00
#640000
1%
0(
0*
0'
1$
1"
1?
09
07
0;
18
1<
10
#645000
0#
0&
1!
0%
0:
0=
1>
0?
00
#650000
1*
0$
0"
1#
17
08
0<
1:
10
#655000
1(
1"
19
1<
00
#660000
0*
1$
0(
07
18
09
10
#665000
1'
0#
1;
0:
00
#670000
1&
1%
0"
1*
0$
1#
1=
1?
0<
17
08
1:
10
#675000
1(
0'
0%
1$
19
0;
0?
18
00
#680000
0&
1"
0*
0(
1'
1%
0$
0=
1<
07
09
1;
1?
08
10
#685000
1&
0'
0%
1$
1=
0;
0?
18
00
#690000
0#
1*
0&
1%
0:
17
0=
1?
10
#695000
0!
0"
1(
0$
1&
0%
0>
0<
19
08
1=
0?
00
#700000
1'
1#
0*
1$
1%
1;
1:
07
18
1?
10
#705000
1!
1"
0&
0#
0$
1>
1<
0=
0:
08
00
#710000
1*
0%
1$
17
0?
18
10
#715000
0'
0!
1&
1#
0;
0>
1=
1:
00
#720000
0(
0"
0*
1%
0$
1'
1!
0#
09
0<
07
1?
08
1;
1>
0:
10
#725000
1(
0%
1$
0'
19
0?
18
0;
00
#730000
0&
1"
1*
0!
1#
1%
1'
0=
1<
17
0>
1:
1?
1;
10
#735000
0(
0"
1!
0#
0'
09
0<
1>
0:
0;
00
#740000
0*
1(
1"
1'
07
19
1<
1;
10
#745000
0%
0"
0'
0?
0<
0;
00
#750000
0$
0!
1*
1"
1'
08
0>
17
1<
1;
10
#755000
0(
1$
09
18
00
#760000
1&
1#
1%
1!
0*
1(
0$
1=
1:
1?
1>
07
19
08
10
#765000
0'
0#
0%
0!
1$
0;
0:
0?
0>
18
00
#770000
0&
1*
1'
1#
1%
1!
0=
17
1;
1:
1?
1>
10
#775000
0(
0$
1&
0#
09
08
1=
0:
00
#780000
0"
0*
0'
0!
1$
0&
1#
0<
07
0;
0>
18
0=
1:
10
#785000
0%
1(
0$
1&
0#
0?
19
08
1=
0:
00
#790000
1*
1'
1$
0&
1#
17
1;
18
0=
1:
10
#795000
1"
1%
0(
0'
1&
1<
1?
09
0;
1=
00
#800000
1!
0*
0$
0#
0"
0%
1(
1'
1>
07
08
0:
0<
0?
19
1;
10
#805000
0&
0!
1$
1%
0(
0=
0>
18
1?
09
00
#810000
1*
1#
1"
1&
0$
17
1:
1<
1=
08
10
#815000
1!
0%
0&
1$
1>
0?
0=
18
00
#820000
0'
0*
0#
0!
0$
0;
07
0:
0>
08
10
#825000
1&
1#
1!
1=
1:
1>
00
#830000
1(
1*
0#
0!
19
17
0:
0>
10
#835000
1%
1'
1$
0&
1!
1?
1;
18
0=
1>
00
#840000
0(
0*
1#
0'
1&
09
07
1:
0;
1=
10
#845000
0"
1(
1'
0<
19
1;
00
#850000
0!
1*
1"
0(
0'
0>
17
1<
09
0;
10
#855000
0&
1(
1'
0=
19
1;
00
#860000
0$
0#
1!
0*
0"
1&
0'
08
0:
1>
07
0<
1=
0;
10
#865000
0(
1#
0!
1'
09
1:
0>
1;
00
#870000
0%
1*
1(
0#
0?
17
19
0:
10
#875000
1"
0&
1!
0'
0(
1<
0=
1>
0;
09
00
#880000
1$
0*
1#
1'
18
07
1:
1;
10
#885000
0"
0$
0#
0<
08
0:
00
#890000
1%
1*
0'
1"
1$
1?
17
0;
1<
18
10
#895000
1&
0!
1#
1'
0$
1=
0>
1:
1;
08
00
#900000
0%
0*
0"
0&
1!
1$
0?
07
0<
0=
1>
18
10
#905000
1(
0#
1%
1"
19
0:
1?
1<
00
#910000
0'
1*
1&
0$
1#
0"
0;
17
1=
08
1:
0<
10
#915000
0!
0%
1'
0&
1$
0#
0>
0?
1;
0=
18
0:
00
#920000
0(
0*
0'
0$
09
07
0;
08
10
#925000
1"
1&
1#
1(
1'
1$
1<
1=
1:
19
1;
18
00
#930000
1!
1*
0"
0#
0(
0'
0$
1>
17
0<
0:
09
0;
08
10
#935000
1%
1"
1#
1(
1'
1$
1?
1<
1:
19
1;
18
00
#940000
0&
0!
0*
0%
0#
0'
0=
0>
07
0?
0:
0;
10
#945000
0"
0(
1&
1#
1'
0<
09
1=
1:
1;
00
#950000
0$
1!
1*
1%
1"
1(
0&
0#
0'
08
1>
17
1?
1<
19
0=
0:
0;
10
#955000
0!
0%
0(
1#
0>
0?
09
1:
00
#960000
0*
0"
1&
1'
1!
1%
07
0<
1=
1;
1>
1?
10
#965000
1(
1"
0&
0%
19
1<
0=
0?
00
#970000
1$
1*
0'
0!
0(
1%
18
17
0;
0>
09
1?
10
#975000
1!
1(
0%
1>
19
0?
00
#980000
1&
0*
1'
0!
0(
1=
07
1;
0>
09
10
#985000
0#
0"
1%
0&
0:
0<
1?
0=
00
#990000
1*
0'
1(
1"
0%
1&
17
0;
19
1<
0?
1=
10
#995000
1!
1#
1%
0&
1>
1:
1?
0=
00
