parte_a/simulation/qsim/FPGAparteA.msim.vcd
$comment
	File created using the following command:
		vcd file FPGAparteA.msim.vcd -direction
$end
$date
	Sat Nov 02 17:04:10 2024
$end
$version
	ModelSim Version 10.1d
$end
$timescale
	1ps
$end
$scope module FPGAparteA_vlg_vec_tst $end
$var reg 1 ! SW1 $end
$var reg 1 " SW2 $end
$var reg 1 # SW3 $end
$var wire 1 $ LED $end
$var wire 1 % sampler $end
$scope module i1 $end
$var wire 1 & gnd $end
$var wire 1 ' vcc $end
$var wire 1 ( unknown $end
$var tri1 1 ) devclrn $end
$var tri1 1 * devpor $end
$var tri1 1 + devoe $end
$var wire 1 , LED~output_o $end
$var wire 1 - SW3~input_o $end
$var wire 1 . SW1~input_o $end
$var wire 1 / SW2~input_o $end
$var wire 1 0 LED~0_combout $end
$upscope $end
$upscope $end
$enddefinitions $end
#0
$dumpvars
0!
1"
1#
x$
x%
0&
1'
x(
1)
1*
1+
x,
1-
0.
1/
x0
$end
#3207
00
#5000
1!
0"
0%
#5769
1.
#5782
0,
0$
#5893
0/
#8980
10
#10000
0#
0!
1"
1%
#10786
1/
#10874
0.
#10884
0-
#11572
1,
1$
#14361
00
#15000
1#
1!
0%
#15769
1.
#15779
1-
#16936
0,
0$
#18980
10
#21572
1,
1$
#25000
0#
0!
1%
#25874
0.
#25884
0-
#29361
00
#30000
0"
0%
#30893
0/
#31936
0,
0$
#34363
10
#35000
1"
1%
#35786
1/
#36955
1,
1$
#38993
00
#40000
1#
0"
0%
#40779
1-
#40893
0/
#41568
0,
0$
#44363
10
#45000
1!
0#
1%
#45769
1.
#45884
0-
#46955
1,
1$
#49370
00
#50000
1"
0!
1#
0%
#50779
1-
#50786
1/
#50874
0.
#51945
0,
0$
#55000
0"
0#
1%
#55884
0-
#55893
0/
#59363
10
#60000
1!
1"
1#
0%
#60769
1.
#60779
1-
#60786
1/
#61955
1,
1$
#65000
0!
0#
1%
#65874
0.
#65884
0-
#69361
00
#70000
1!
1#
0%
#70769
1.
#70779
1-
#71936
0,
0$
#73980
10
#75000
0"
0!
1%
#75874
0.
#75893
0/
#76572
1,
1$
#80000
1"
1!
0%
#80769
1.
#80786
1/
#95000
0#
0!
1%
#95874
0.
#95884
0-
#99361
00
#100000
0"
1#
0%
#100779
1-
#100893
0/
#101936
0,
0$
#104363
10
#105000
1!
1%
#105769
1.
#106955
1,
1$
#110000
0!
0%
#110874
0.
#115000
1"
0#
1%
#115786
1/
#115884
0-
#118993
00
#120000
1!
0"
0%
#120769
1.
#120893
0/
#121568
0,
0$
#123980
10
#124347
00
#130000
1"
1%
#130786
1/
#134009
10
#135000
0"
0%
#135893
0/
#136601
1,
1$
#139347
00
#140000
1#
0!
1"
1%
#140779
1-
#140786
1/
#140874
0.
#141922
0,
0$
#145000
1!
0"
0%
#145769
1.
#145893
0/
#148980
10
#151572
1,
1$
#160000
0!
1"
1%
#160786
1/
#160874
0.
#164361
00
#165000
0#
0"
0%
#165884
0-
#165893
0/
#166936
0,
0$
#169363
10
#170000
1#
1"
1%
#170779
1-
#170786
1/
#171955
1,
1$
#173993
00
#175000
1!
0%
#175769
1.
#176568
0,
0$
#178980
10
#180000
0"
1%
#180893
0/
#181572
1,
1$
#185000
0!
1"
0%
#185786
1/
#185874
0.
#189361
00
#190000
0#
1%
#190884
0-
#191936
0,
0$
#195000
1!
0%
#195769
1.
#198980
10
#200000
0"
0!
1%
#200874
0.
#200893
0/
#201572
1,
1$
#205000
1#
1"
1!
0%
#205769
1.
#205779
1-
#205786
1/
#210000
0#
1%
#210884
0-
#215000
0"
0!
1#
0%
#215779
1-
#215874
0.
#215893
0/
#220000
1!
0#
1%
#220769
1.
#220884
0-
#224370
00
#225000
1"
0!
0%
#225786
1/
#225874
0.
#226945
0,
0$
#235000
1#
1%
#235779
1-
#240000
0"
1!
0#
0%
#240769
1.
#240884
0-
#240893
0/
#243980
10
#244347
00
#245000
0!
1%
#245874
0.
#249335
10
#250000
1#
1!
0%
#250769
1.
#250779
1-
#251927
1,
1$
#255000
1"
0#
1%
#255786
1/
#255884
0-
#265000
0!
0"
0%
#265874
0.
#265893
0/
#270000
1#
1"
1%
#270779
1-
#270786
1/
#273993
00
#275000
0"
0%
#275893
0/
#276568
0,
0$
#279363
10
#280000
1!
0#
1%
#280769
1.
#280884
0-
#281955
1,
1$
#284370
00
#286945
0,
0$
#290000
1"
0%
#290786
1/
#294009
10
#295000
1#
0"
1%
#295779
1-
#295893
0/
#296601
1,
1$
#300000
0!
0#
1"
0%
#300786
1/
#300874
0.
#300884
0-
#304361
00
#305000
1#
0"
1%
#305779
1-
#305893
0/
#306936
0,
0$
#309363
10
#310000
0#
0%
#310884
0-
#311955
1,
1$
#315000
1"
1#
1%
#315779
1-
#315786
1/
#318993
00
#320000
1!
0"
0%
#320769
1.
#320893
0/
#321568
0,
0$
#323980
10
#326572
1,
1$
#330000
0#
1%
#330884
0-
#334370
00
#336945
0,
0$
#340000
1"
0%
#340786
1/
#344009
10
#345000
1#
0"
1%
#345779
1-
#345893
0/
#346601
1,
1$
#350000
0!
0#
1"
0%
#350786
1/
#350874
0.
#350884
0-
#354361
00
#355000
1!
1#
1%
#355769
1.
#355779
1-
#356936
0,
0$
#358980
10
#360000
0"
0%
#360893
0/
#361572
1,
1$
#365000
0!
1"
1%
#365786
1/
#365874
0.
#369361
00
#370000
0"
0%
#370893
0/
#371936
0,
0$
#374363
10
#375000
0#
1!
1"
1%
#375769
1.
#375786
1/
#375884
0-
#376955
1,
1$
#380000
1#
0!
0"
0%
#380779
1-
#380874
0.
#380893
0/
#385000
1"
1%
#385786
1/
#388993
00
#390000
1!
0%
#390769
1.
#391568
0,
0$
#393980
10
#395000
0!
1%
#395874
0.
#396572
1,
1$
#399361
00
#400000
0#
0"
1!
0%
#400769
1.
#400884
0-
#400893
0/
#401936
0,
0$
#403980
10
#404347
00
#410000
1#
1"
0!
1%
#410779
1-
#410786
1/
#410874
0.
#415000
0#
0%
#415884
0-
#425000
0"
1#
1%
#425779
1-
#425893
0/
#429363
10
#430000
1!
1"
0#
0%
#430769
1.
#430786
1/
#430884
0-
#431955
1,
1$
#435000
0!
1#
1%
#435779
1-
#435874
0.
#439361
00
#440000
0"
0%
#440893
0/
#441936
0,
0$
#444363
10
#445000
1!
0#
1%
#445769
1.
#445884
0-
#446955
1,
1$
#449370
00
#450000
1"
0!
0%
#450786
1/
#450874
0.
#451945
0,
0$
#455000
1#
1!
1%
#455769
1.
#455779
1-
#458980
10
#460000
0#
0%
#460884
0-
#461572
1,
1$
#465000
0"
0!
1%
#465874
0.
#465893
0/
#470000
1"
1!
0%
#470769
1.
#470786
1/
#475000
1#
0!
1%
#475779
1-
#475874
0.
#479361
00
#480000
0"
1!
0%
#480769
1.
#480893
0/
#481936
0,
0$
#483980
10
#485000
0#
1"
0!
1%
#485786
1/
#485874
0.
#485884
0-
#486572
1,
1$
#489361
00
#490000
1#
0"
0%
#490779
1-
#490893
0/
#491936
0,
0$
#494363
10
#495000
1"
1%
#495786
1/
#496955
1,
1$
#498993
00
#500000
1!
0#
0%
#500769
1.
#500884
0-
#501568
0,
0$
#503980
10
#505000
0"
0!
1%
#505874
0.
#505893
0/
#506572
1,
1$
#510000
1#
1!
0%
#510769
1.
#510779
1-
#515000
0#
0!
1%
#515874
0.
#515884
0-
#520000
1!
0%
#520769
1.
#524006
00
#525000
0!
1%
#525874
0.
#526581
0,
0$
#529335
10
#530000
1#
1!
0%
#530769
1.
#530779
1-
#531927
1,
1$
#540000
1"
1%
#540786
1/
#545000
0!
0"
0%
#545874
0.
#545893
0/
#555000
1!
1"
1%
#555769
1.
#555786
1/
#560000
0!
0%
#560874
0.
#564361
00
#565000
0"
1%
#565893
0/
#566936
0,
0$
#569363
10
#570000
0#
1!
1"
0%
#570769
1.
#570786
1/
#570884
0-
#571955
1,
1$
#575000
0!
1%
#575874
0.
#579361
00
#580000
1#
1!
0%
#580769
1.
#580779
1-
#581936
0,
0$
#583980
10
#585000
0"
0!
1%
#585874
0.
#585893
0/
#586572
1,
1$
#595000
1"
1!
0%
#595769
1.
#595786
1/
#600000
0!
1%
#600874
0.
#604361
00
#605000
0"
1!
0%
#605769
1.
#605893
0/
#606936
0,
0$
#608980
10
#610000
0!
1%
#610874
0.
#611572
1,
1$
#615000
0#
1!
0%
#615769
1.
#615884
0-
#619370
00
#620000
1"
1#
1%
#620779
1-
#620786
1/
#621945
0,
0$
#623986
10
#626578
1,
1$
#630000
0#
0%
#630884
0-
#635000
0!
0"
1%
#635874
0.
#635893
0/
#640000
1!
1"
0%
#640769
1.
#640786
1/
#650000
1#
0!
1%
#650779
1-
#650874
0.
#654361
00
#655000
0"
1!
0%
#655769
1.
#655893
0/
#656936
0,
0$
#658980
10
#660000
0!
1%
#660874
0.
#661572
1,
1$
#665000
0#
1"
0%
#665786
1/
#665884
0-
#668993
00
#670000
1!
1#
1%
#670769
1.
#670779
1-
#671568
0,
0$
#673980
10
#675000
0#
0%
#675884
0-
#676572
1,
1$
#680000
0!
1%
#680874
0.
#684361
00
#685000
0"
1!
0%
#685769
1.
#685893
0/
#686936
0,
0$
#688980
10
#689347
00
#690000
1#
1"
1%
#690779
1-
#690786
1/
#693986
10
#695000
0!
0#
0%
#695874
0.
#695884
0-
#696578
1,
1$
#699361
00
#700000
0"
1%
#700893
0/
#701936
0,
0$
#704363
10
#705000
1#
0%
#705779
1-
#706955
1,
1$
#710000
0#
1%
#710884
0-
#715000
1!
1"
0%
#715769
1.
#715786
1/
#720000
0!
1%
#720874
0.
#724361
00
#725000
0"
1!
0%
#725769
1.
#725893
0/
#726936
0,
0$
#728980
10
#729347
00
#730000
0!
1%
#730874
0.
#734335
10
#736927
1,
1$
#740000
1"
1!
0%
#740769
1.
#740786
1/
#745000
1#
0"
1%
#745779
1-
#745893
0/
#755000
0#
0%
#755884
0-
#759370
00
#761945
0,
0$
#765000
0!
1#
1%
#765779
1-
#765874
0.
#768986
10
#770000
0#
0%
#770884
0-
#771578
1,
1$
#775000
1!
1#
1%
#775769
1.
#775779
1-
#780000
1"
0!
0%
#780786
1/
#780874
0.
#784361
00
#785000
0#
1%
#785884
0-
#786936
0,
0$
#790000
0"
1!
0%
#790769
1.
#790893
0/
#793980
10
#794347
00
#795000
1#
1%
#795779
1-
#798986
10
#800000
1"
0#
0%
#800786
1/
#800884
0-
#801578
1,
1$
#805000
0!
0"
1#
1%
#805779
1-
#805874
0.
#805893
0/
#810000
1!
0%
#810769
1.
#815000
0#
1%
#815884
0-
#819370
00
#821945
0,
0$
#830000
0!
1#
0%
#830779
1-
#830874
0.
#833986
10
#835000
1"
1!
1%
#835769
1.
#835786
1/
#836578
1,
1$
#840000
0#
0"
0%
#840884
0-
#840893
0/
#844347
00
#845000
1"
1%
#845786
1/
#846922
0,
0$
#849009
10
#850000
1#
0"
0%
#850779
1-
#850893
0/
#851601
1,
1$
#855000
0!
1"
1%
#855786
1/
#855874
0.
#859361
00
#860000
0#
1!
0"
0%
#860769
1.
#860884
0-
#860893
0/
#861936
0,
0$
#863980
10
#864347
00
#865000
1#
1%
#865779
1-
#868986
10
#870000
0!
1"
0%
#870786
1/
#870874
0.
#871578
1,
1$
#874361
00
#875000
0"
1%
#875893
0/
#876936
0,
0$
#879363
10
#881955
1,
1$
#885000
1!
0%
#885769
1.
#890000
0!
1%
#890874
0.
#895000
0#
1"
1!
0%
#895769
1.
#895786
1/
#895884
0-
#900000
1#
0!
1%
#900779
1-
#900874
0.
#904361
00
#905000
0"
0%
#905893
0/
#906936
0,
0$
#909363
10
#910000
0#
1!
1"
1%
#910769
1.
#910786
1/
#910884
0-
#911955
1,
1$
#915000
1#
0%
#915779
1-
#925000
0"
0#
1%
#925884
0-
#925893
0/
#929347
00
#930000
0!
1"
0%
#930786
1/
#930874
0.
#931922
0,
0$
#935000
1#
0"
1%
#935779
1-
#935893
0/
#939363
10
#940000
0#
1"
0%
#940786
1/
#940884
0-
#941955
1,
1$
#943993
00
#945000
1!
1#
0"
1%
#945769
1.
#945779
1-
#945893
0/
#946568
0,
0$
#948980
10
#950000
0!
0#
1"
0%
#950786
1/
#950874
0.
#950884
0-
#951572
1,
1$
#954361
00
#955000
1!
0"
1%
#955769
1.
#955893
0/
#956936
0,
0$
#958980
10
#959347
00
#960000
1#
1"
0%
#960779
1-
#960786
1/
#963986
10
#965000
0!
0"
1%
#965874
0.
#965893
0/
#966578
1,
1$
#970000
0#
0%
#970884
0-
#975000
1"
1#
1%
#975779
1-
#975786
1/
#978993
00
#980000
0"
0%
#980893
0/
#981568
0,
0$
#984363
10
#985000
1!
0#
1"
1%
#985769
1.
#985786
1/
#985884
0-
#986955
1,
1$
#995000
0!
1#
0%
#995779
1-
#995874
0.
#999361
00
