parte_e/simulation/qsim/parte_e.msim.vcd
$comment
	File created using the following command:
		vcd file parte_e.msim.vcd -direction
$end
$date
	Thu Nov 07 18:25:31 2024
$end
$version
	ModelSim Version 10.1d
$end
$timescale
	1ps
$end
$scope module parte_e_vlg_vec_tst $end
$var reg 1 ! clock $end
$var reg 1 " fin_dato $end
$var reg 1 # fin_dir $end
$var reg 1 $ reset $end
$var reg 1 % sda $end
$var reg 1 & soy $end
$var wire 1 ' ack $end
$var wire 1 ( hab_dato $end
$var wire 1 ) hab_dir $end
$var wire 1 * sampler $end
$scope module i1 $end
$var wire 1 + gnd $end
$var wire 1 , vcc $end
$var wire 1 - unknown $end
$var tri1 1 . devclrn $end
$var tri1 1 / devpor $end
$var tri1 1 0 devoe $end
$var wire 1 1 fin_dir~input_o $end
$var wire 1 2 clock~input_o $end
$var wire 1 3 sda~input_o $end
$var wire 1 4 clock~inputclkctrl_outclk $end
$var wire 1 5 hab_dir~output_o $end
$var wire 1 6 hab_dato~output_o $end
$var wire 1 7 ack~output_o $end
$var wire 1 8 reset~input_o $end
$var wire 1 9 soy~input_o $end
$var wire 1 : reg_fstate.ocioso~0_combout $end
$var wire 1 ; fin_dato~input_o $end
$var wire 1 < reg_fstate.RorW~0_combout $end
$var wire 1 = fstate.RorW~q $end
$var wire 1 > reg_fstate.ackk~0_combout $end
$var wire 1 ? fstate.ackk~q $end
$var wire 1 @ reg_fstate.guarda_dato~0_combout $end
$var wire 1 A fstate.guarda_dato~q $end
$var wire 1 B reg_fstate.ocioso~1_combout $end
$var wire 1 C reg_fstate.ocioso~2_combout $end
$var wire 1 D fstate.ocioso~q $end
$var wire 1 E reg_fstate.start~0_combout $end
$var wire 1 F fstate.start~q $end
$var wire 1 G reg_fstate.guarda_dir~0_combout $end
$var wire 1 H fstate.guarda_dir~q $end
$var wire 1 I hab_dir~0_combout $end
$var wire 1 J hab_dato~0_combout $end
$var wire 1 K ack~0_combout $end
$upscope $end
$upscope $end
$enddefinitions $end
#0
$dumpvars
0!
x"
x#
0$
0%
x&
0'
0(
0)
x*
0+
1,
x-
1.
1/
10
x1
02
03
04
05
06
07
08
x9
0:
x;
0<
0=
0>
0?
0@
0A
0B
1C
0D
1E
0F
0G
0H
0I
0J
0K
$end
#5000
1%
13
0*
0E
1B
0C
#10000
1!
12
14
1*
#20000
0!
02
04
0*
#30000
1!
12
14
1*
#35000
0%
03
0*
1E
0B
1C
#40000
0!
1%
02
13
04
1*
0E
1B
0C
#45000
0%
03
0*
1E
0B
1C
#50000
1!
1%
12
13
14
1*
0E
1B
0C
1F
1D
1G
0B
1C
#60000
0!
02
04
0*
#65000
0%
03
1*
#70000
1!
1%
12
13
14
0*
1H
0F
xG
x<
x:
1I
xC
15
1)
#75000
0%
03
1*
#80000
0!
1%
02
13
04
0*
#85000
0%
03
1*
#90000
1!
12
14
0*
xH
xD
x=
xE
x>
xI
x5
x)
#100000
1%
0!
13
02
04
1*
0E
xB
#105000
0%
03
0*
xE
0B
#110000
1!
1%
12
13
14
1*
0E
xB
xF
x?
x@
xK
x7
x'
#120000
0!
0%
02
03
04
0*
xE
0B
#130000
1!
12
14
1*
xA
xB
xJ
x6
x(
#135000
1%
13
0*
0E
#140000
0!
0%
02
03
04
1*
xE
#145000
1%
13
0*
0E
#150000
1!
12
14
1*
0F
#155000
0%
03
0*
xE
#160000
0!
02
04
1*
#165000
1%
13
0*
0E
#170000
1!
12
14
1*
#180000
0!
02
04
0*
#185000
0%
03
1*
xE
#190000
1!
12
14
0*
xF
#200000
0!
02
04
1*
#205000
1%
13
0*
0E
#210000
1!
12
14
1*
0F
#220000
0!
02
04
0*
#225000
0%
03
1*
xE
#230000
1!
12
14
0*
xF
#235000
1%
13
1*
0E
#240000
0!
02
04
0*
#250000
1!
12
14
1*
0F
#260000
0%
0!
03
02
04
0*
xE
#265000
1%
13
1*
0E
#270000
1!
0%
12
03
14
0*
xE
#280000
0!
02
04
1*
#285000
1%
13
0*
0E
#290000
1!
0%
12
03
14
1*
xE
#300000
0!
1%
02
13
04
0*
0E
#310000
1!
12
14
1*
#315000
0%
03
0*
xE
#320000
0!
1%
02
13
04
1*
0E
#325000
0%
03
0*
xE
#330000
1!
1%
12
13
14
1*
0E
xF
#335000
0%
03
0*
xE
#340000
0!
02
04
1*
#345000
1%
13
0*
0E
#350000
1!
12
14
1*
0F
#355000
0%
03
0*
xE
#360000
0!
1%
02
13
04
1*
0E
#365000
0%
03
0*
xE
#370000
1!
1%
12
13
14
1*
0E
xF
#380000
0!
0%
02
03
04
0*
xE
#390000
1!
12
14
1*
#400000
1%
0!
13
02
04
0*
0E
#410000
0%
1!
03
12
14
1*
xE
0F
#415000
1%
13
0*
0E
#420000
0!
02
04
1*
#430000
0%
1!
03
12
14
0*
xE
#435000
1%
13
1*
0E
#440000
0!
02
04
0*
#445000
0%
03
1*
xE
#450000
1!
12
14
0*
xF
#455000
1%
13
1*
0E
#460000
0!
02
04
0*
#470000
1!
12
14
1*
0F
#480000
0!
02
04
0*
#485000
0%
03
1*
xE
#490000
1!
1%
12
13
14
0*
0E
xF
#500000
0!
02
04
1*
#505000
0%
03
0*
xE
#510000
1!
12
14
1*
#520000
1%
0!
13
02
04
0*
0E
#530000
1!
12
14
1*
0F
#540000
0%
0!
03
02
04
0*
xE
#550000
1%
1!
13
12
14
1*
0E
xF
#555000
0%
03
0*
xE
#560000
0!
1%
02
13
04
1*
0E
#565000
0%
03
0*
xE
#570000
1!
1%
12
13
14
1*
0E
#580000
0!
0%
02
03
04
0*
xE
#585000
1%
13
1*
0E
#590000
1!
0%
12
03
14
0*
xE
0F
#595000
1%
13
1*
0E
#600000
0!
02
04
0*
#610000
0%
1!
03
12
14
1*
xE
#620000
1%
0!
13
02
04
0*
0E
#630000
0%
1!
03
12
14
1*
xE
#640000
1%
0!
13
02
04
0*
0E
#645000
0%
03
1*
xE
#650000
1!
1%
12
13
14
0*
0E
xF
#655000
0%
03
1*
xE
#660000
0!
02
04
0*
#670000
1%
1!
13
12
14
1*
0E
#680000
0%
0!
03
02
04
0*
xE
#690000
1%
1!
13
12
14
1*
0E
#695000
0%
03
0*
xE
#700000
0!
02
04
1*
#705000
1%
13
0*
0E
#710000
1!
12
14
1*
0F
#715000
0%
03
0*
xE
#720000
0!
1%
02
13
04
1*
0E
#725000
0%
03
0*
xE
#730000
1!
1%
12
13
14
1*
0E
xF
#735000
0%
03
0*
xE
#740000
0!
1%
02
13
04
1*
0E
#750000
1!
12
14
0*
0F
#755000
0%
03
1*
xE
#760000
0!
1%
02
13
04
0*
0E
#765000
0%
03
1*
xE
#770000
1!
12
14
0*
xF
#775000
1%
13
1*
0E
#780000
0!
02
04
0*
#785000
0%
03
1*
xE
#790000
1!
12
14
0*
#795000
1%
13
1*
0E
#800000
0!
0%
02
03
04
0*
xE
#805000
1%
13
1*
0E
#810000
1!
0%
12
03
14
0*
xE
0F
#815000
1%
13
1*
0E
#820000
0!
0%
02
03
04
0*
xE
#830000
1!
1%
12
13
14
1*
0E
xF
#835000
0%
03
0*
xE
#840000
0!
02
04
1*
#850000
1%
1!
13
12
14
0*
0E
#855000
0%
03
1*
xE
#860000
0!
1%
02
13
04
0*
0E
#870000
1!
12
14
1*
0F
#880000
0!
02
04
0*
#890000
0%
1!
03
12
14
1*
xE
#900000
1%
0!
13
02
04
0*
0E
#910000
0%
1!
03
12
14
1*
xE
#920000
0!
02
04
0*
#925000
1%
13
1*
0E
#930000
1!
12
14
0*
#940000
0%
0!
03
02
04
1*
xE
#945000
1%
13
0*
0E
#950000
1!
12
14
1*
#960000
0%
0!
03
02
04
0*
xE
#965000
1%
13
1*
0E
#970000
1!
12
14
0*
#980000
0%
0!
03
02
04
1*
xE
#990000
1!
12
14
0*
xF
