parte_b/simulation/qsim/parte_b.msim.vcd
$comment
	File created using the following command:
		vcd file parte_b.msim.vcd -direction
$end
$date
	Wed Nov 06 10:10:41 2024
$end
$version
	ModelSim Version 10.1d
$end
$timescale
	1ps
$end
$scope module Restador_Completo_vlg_vec_tst $end
$var reg 1 ! CLOCK $end
$var reg 1 " in_a $end
$var reg 1 # in_b $end
$var reg 1 $ in_bin $end
$var wire 1 % o_bout $end
$var wire 1 & o_z $end
$var wire 1 ' sampler $end
$scope module i1 $end
$var wire 1 ( gnd $end
$var wire 1 ) vcc $end
$var wire 1 * unknown $end
$var tri1 1 + devclrn $end
$var tri1 1 , devpor $end
$var tri1 1 - devoe $end
$var wire 1 . D3|Q~q $end
$var wire 1 / in_bin~input_o $end
$var wire 1 0 D3|Q~feeder_combout $end
$var wire 1 1 o_z~output_o $end
$var wire 1 2 o_bout~output_o $end
$var wire 1 3 CLOCK~input_o $end
$var wire 1 4 CLOCK~inputclkctrl_outclk $end
$var wire 1 5 in_b~input_o $end
$var wire 1 6 D2|Q~feeder_combout $end
$var wire 1 7 D2|Q~q $end
$var wire 1 8 in_a~input_o $end
$var wire 1 9 D1|Q~feeder_combout $end
$var wire 1 : D1|Q~q $end
$var wire 1 ; z~0_combout $end
$var wire 1 < D5|Q~q $end
$var wire 1 = bout~0_combout $end
$var wire 1 > D4|Q~q $end
$upscope $end
$upscope $end
$enddefinitions $end
#0
$dumpvars
0!
1"
1#
1$
x%
x&
x'
0(
1)
x*
1+
1,
1-
0.
1/
x0
x1
x2
03
x4
15
x6
07
18
x9
0:
x;
0<
x=
0>
$end
#173
04
#810
0=
#821
0;
#2676
02
0%
#2880
16
#2971
01
0&
#3189
10
#3215
19
#5000
0"
0'
#5894
08
#9322
09
#10000
1!
0$
1"
1'
#10789
18
#10819
13
#10924
0/
#11006
14
#13392
1.
17
#14004
19
#14090
1=
#14318
00
#15000
1$
0"
0'
#15819
1/
#15894
08
#19008
10
#19322
09
#20000
0!
1"
1'
#20789
18
#20924
03
#21097
04
#24004
19
#25000
0#
0"
0'
#25884
05
#25894
08
#29000
06
#29322
09
#30000
1!
1'
#30819
13
#31006
14
#33392
07
1>
#34022
0=
#34025
1;
#35000
0$
1#
1"
0'
#35779
15
#35789
18
#35924
0/
#36042
12
1%
#38659
16
#39004
19
#39318
00
#40000
0!
1$
0#
1'
#40819
1/
#40884
05
#40924
03
#41097
04
#44000
06
#44008
10
#45000
0$
1#
0'
#45779
15
#45924
0/
#48659
16
#49318
00
#50000
0"
1!
1'
#50819
13
#50894
08
#51006
14
#53392
0.
17
1:
1<
0>
#53942
1=
#54213
0;
#54322
09
#55000
0#
1"
0'
#55789
18
#55884
05
#56068
02
0%
#56346
11
1&
#59000
06
#59004
19
#60000
0!
1#
0"
1'
#60779
15
#60894
08
#60924
03
#61097
04
#63659
16
#64322
09
#65000
1"
0'
#65789
18
#69004
19
#70000
1$
1!
0"
1'
#70819
13
1/
#70894
08
#71006
14
#73392
0<
1>
#74008
10
#74322
09
#75000
1"
0'
#75789
18
#76042
12
1%
#76363
01
0&
#79004
19
#80000
0#
0$
0!
0"
1'
#80884
05
#80894
08
#80924
03
0/
#81097
04
#84000
06
#84318
00
#84322
09
#85000
1#
0'
#85779
15
#88659
16
#90000
1!
1'
#90819
13
#91006
14
#93392
0:
#93887
1;
#94202
0=
#95000
1"
0'
#95789
18
#99004
19
#100000
1$
0!
1'
#100819
1/
#100924
03
#101097
04
#104008
10
#110000
0#
0"
0$
1!
0'
#110819
13
#110884
05
#110894
08
#110924
0/
#111006
14
#113392
1.
1:
1<
0>
#114000
06
#114090
1=
#114318
00
#114322
09
#115000
1#
1"
1'
#115779
15
#115789
18
#116068
02
0%
#116346
11
1&
#118659
16
#119004
19
#120000
0!
0#
0'
#120884
05
#120924
03
#121097
04
#124000
06
#125000
1$
1#
1'
#125779
15
#125819
1/
#128659
16
#129008
10
#130000
0"
1!
0$
0#
0'
#130819
13
#130884
05
#130894
08
#130924
0/
#131006
14
#133392
1>
#134000
06
#134318
00
#134322
09
#135000
1"
1#
1'
#135779
15
#135789
18
#136042
12
1%
#138659
16
#139004
19
#140000
0!
1$
0'
#140819
1/
#140924
03
#141097
04
#144008
10
#145000
0"
0#
0$
1'
#145884
05
#145894
08
#145924
0/
#149000
06
#149318
00
#149322
09
#150000
1!
1#
1$
0'
#150779
15
#150819
1/
13
#151006
14
#153392
0.
07
0:
#153659
16
#154008
10
#154202
0=
#154213
0;
#155000
0#
0$
1'
#155884
05
#155924
0/
#159000
06
#159318
00
#160000
1"
0!
1$
0'
#160789
18
#160819
1/
#160924
03
#161097
04
#164004
19
#164008
10
#170000
1#
0"
1!
0$
1'
#170779
15
#170819
13
#170894
08
#170924
0/
#171006
14
#173392
1.
1:
0<
0>
#173659
16
#174090
1=
#174318
00
#174322
09
#175000
0#
1"
0'
#175789
18
#175884
05
#176068
02
0%
#176363
01
0&
#179000
06
#179004
19
#180000
0!
1$
0"
1'
#180819
1/
#180894
08
#180924
03
#181097
04
#184008
10
#184322
09
#185000
0$
1"
0'
#185789
18
#185924
0/
#189004
19
#189318
00
#190000
1!
1$
0"
1'
#190819
1/
13
#190894
08
#191006
14
#193392
0.
1>
#194008
10
#194202
1;
#194210
0=
#194322
09
#195000
1#
0'
#195779
15
#196042
12
1%
#198659
16
#200000
0!
0$
1"
0#
1'
#200789
18
#200884
05
#200924
0/
03
#201097
04
#204000
06
#204004
19
#204318
00
#205000
1#
0'
#205779
15
#208659
16
#210000
1!
0"
0#
1'
#210819
13
#210884
05
#210894
08
#211006
14
#213392
17
1<
0>
#213934
0;
#213942
1=
#214000
06
#214322
09
#215000
1#
0'
#215779
15
#216068
02
0%
#216346
11
1&
#218659
16
#220000
1$
0!
0#
1'
#220819
1/
#220884
05
#220924
03
#221097
04
#224000
06
#224008
10
#225000
1"
0'
#225789
18
#229004
19
#230000
0$
1!
1'
#230819
13
#230924
0/
#231006
14
#233392
1.
07
0<
1>
#234318
00
#236042
12
1%
#236363
01
0&
#240000
0!
0'
#240924
03
#241097
04
#245000
1#
1'
#245779
15
#248659
16
#250000
1$
1!
0#
0'
#250819
13
1/
#250884
05
#251006
14
#253392
0.
17
#254000
06
#254008
10
#255000
0"
0$
1#
1'
#255779
15
#255894
08
#255924
0/
#258659
16
#259318
00
#259322
09
#260000
0!
1$
0'
#260819
1/
#260924
03
#261097
04
#264008
10
#265000
0#
0$
1'
#265884
05
#265924
0/
#269000
06
#269318
00
#270000
1!
0'
#270819
13
#271006
14
#273392
07
0:
#274022
0=
#280000
1#
1$
0!
1'
#280779
15
#280819
1/
#280924
03
#281097
04
#283659
16
#284008
10
#285000
0$
0'
#285924
0/
#289318
00
#290000
1"
1!
1$
1'
#290789
18
#290819
1/
13
#291006
14
#293392
17
0>
#293940
1;
#294004
19
#294008
10
#295000
0$
0'
#295924
0/
#296068
02
0%
#299318
00
#300000
0!
1$
1'
#300819
1/
#300924
03
#301097
04
#304008
10
#305000
0#
0"
0$
0'
#305884
05
#305894
08
#305924
0/
#309000
06
#309318
00
#309322
09
#310000
1!
1'
#310819
13
#311006
14
#313392
07
1<
#314019
0;
#315000
1#
1"
0'
#315779
15
#315789
18
#316346
11
1&
#318659
16
#319004
19
#320000
1$
0!
0#
0"
1'
#320819
1/
#320884
05
#320894
08
#320924
03
#321097
04
#324000
06
#324008
10
#324322
09
#325000
0$
1#
1"
0'
#325779
15
#325789
18
#325924
0/
#328659
16
#329004
19
#329318
00
#330000
1!
1$
0#
0"
1'
#330819
1/
13
#330884
05
#330894
08
#331006
14
#333392
17
1:
0<
#334000
06
#334008
10
#334090
1=
#334322
09
#336363
01
0&
#340000
0!
0$
1#
1"
0'
#340779
15
#340789
18
#340924
0/
03
#341097
04
#343659
16
#344004
19
#344318
00
#345000
1$
1'
#345819
1/
#349008
10
#350000
1!
0#
0'
#350819
13
#350884
05
#351006
14
#353392
1.
1>
#354000
06
#354108
1;
#355000
0"
0$
1'
#355894
08
#355924
0/
#356042
12
1%
#359318
00
#359322
09
#360000
0!
1#
1"
1$
0'
#360779
15
#360789
18
#360819
1/
#360924
03
#361097
04
#363659
16
#364004
19
#364008
10
#365000
0"
0$
1'
#365894
08
#365924
0/
#369318
00
#369322
09
#370000
1!
0#
1"
1$
0'
#370789
18
#370819
1/
13
#370884
05
#371006
14
#373392
0.
0:
1<
#374000
06
#374004
19
#374008
10
#374210
0=
#375000
1#
0"
1'
#375779
15
#375894
08
#376346
11
1&
#378659
16
#379322
09
#380000
0!
0#
0'
#380884
05
#380924
03
#381097
04
#384000
06
#385000
0$
1"
1'
#385789
18
#385924
0/
#389004
19
#389318
00
#390000
1!
1#
1$
0'
#390779
15
#390819
1/
13
#391006
14
#393392
07
1:
0>
#393659
16
#394008
10
#395000
0#
0$
1'
#395884
05
#395924
0/
#396068
02
0%
#399000
06
#399318
00
#400000
0!
0'
#400924
03
#401097
04
#405000
1#
1'
#405779
15
#408659
16
#410000
1$
1!
0'
#410819
13
1/
#411006
14
#413392
17
#413934
0;
#413942
1=
#414008
10
#415000
0"
0#
1'
#415884
05
#415894
08
#419000
06
#419322
09
#420000
0!
0'
#420924
03
#421097
04
#425000
1#
1'
#425779
15
#428659
16
#430000
0$
1!
0'
#430819
13
#430924
0/
#431006
14
#433392
1.
0:
0<
1>
#434318
00
#436042
12
1%
#436363
01
0&
#440000
1$
0!
1'
#440819
1/
#440924
03
#441097
04
#444008
10
#445000
1"
0#
0$
0'
#445789
18
#445884
05
#445924
0/
#449000
06
#449004
19
#449318
00
#450000
1!
1'
#450819
13
#451006
14
#453392
0.
07
1:
#454202
1;
#454210
0=
#455000
0"
0'
#455894
08
#459322
09
#460000
1#
0!
1"
1'
#460779
15
#460789
18
#460924
03
#461097
04
#463659
16
#464004
19
#470000
1!
0"
0'
#470819
13
#470894
08
#471006
14
#473392
17
1<
0>
#473934
0;
#473942
1=
#474322
09
#475000
0#
1'
#475884
05
#476068
02
0%
#476346
11
1&
#479000
06
#480000
1$
0!
1#
0'
#480779
15
#480819
1/
#480924
03
#481097
04
#483659
16
#484008
10
#485000
0$
0#
1'
#485884
05
#485924
0/
#489000
06
#489318
00
#490000
1"
1!
1#
0'
#490779
15
#490789
18
#490819
13
#491006
14
#493392
07
0:
0<
1>
#493659
16
#494004
19
#494022
0=
#495000
0#
1'
#495884
05
#496042
12
1%
#496363
01
0&
#499000
06
#500000
0!
0'
#500924
03
#501097
04
#505000
1#
1'
#505779
15
#508659
16
#510000
1!
0'
#510819
13
#511006
14
#513392
17
1:
0>
#514090
1=
#515000
0#
1'
#515884
05
#516068
02
0%
#519000
06
#520000
0!
1#
0'
#520779
15
#520924
03
#521097
04
#523659
16
#525000
1$
0"
1'
#525819
1/
#525894
08
#529008
10
#529322
09
#530000
1!
0#
0$
1"
0'
#530789
18
#530819
13
#530884
05
#530924
0/
#531006
14
#533392
1.
0:
1>
#534000
06
#534004
19
#534318
00
#536042
12
1%
#540000
0!
1#
1'
#540779
15
#540924
03
#541097
04
#543659
16
#545000
1$
0'
#545819
1/
#549008
10
#550000
0"
1!
0#
1'
#550819
13
#550884
05
#550894
08
#551006
14
#553392
1:
#553809
1;
#554000
06
#554322
09
#555000
1#
0'
#555779
15
#558659
16
#560000
0$
0!
1'
#560924
03
0/
#561097
04
#564318
00
#565000
1$
0'
#565819
1/
#569008
10
#570000
1"
1!
0$
1'
#570789
18
#570819
13
#570924
0/
#571006
14
#573392
0:
1<
#573871
0;
#574004
19
#574318
00
#575000
0"
0'
#575894
08
#576346
11
1&
#579322
09
#580000
0#
0!
1$
1"
1'
#580789
18
#580819
1/
#580884
05
#580924
03
#581097
04
#584000
06
#584004
19
#584008
10
#585000
1#
0"
0'
#585779
15
#585894
08
#588659
16
#589322
09
#590000
1!
1"
1'
#590789
18
#590819
13
#591006
14
#593392
0<
#594004
19
#595000
0$
0#
0'
#595884
05
#595924
0/
#596363
01
0&
#599000
06
#599318
00
#600000
0!
0"
1#
1'
#600779
15
#600894
08
#600924
03
#601097
04
#603659
16
#604322
09
#605000
1$
1"
0#
0'
#605789
18
#605819
1/
#605884
05
#609000
06
#609004
19
#609008
10
#610000
1!
0$
0"
1#
1'
#610779
15
#610819
13
#610894
08
#610924
0/
#611006
14
#613392
07
1:
#613659
16
#614318
00
#614322
09
#615000
1"
0'
#615789
18
#619004
19
#620000
0!
1$
1'
#620819
1/
#620924
03
#621097
04
#624008
10
#625000
0#
0'
#625884
05
#629000
06
#630000
1!
0$
1#
1'
#630779
15
#630819
13
#630924
0/
#631006
14
#633659
16
#634318
00
#635000
0"
1$
0'
#635819
1/
#635894
08
#639008
10
#639322
09
#640000
0!
1"
1'
#640789
18
#640924
03
#641097
04
#644004
19
#645000
0"
0'
#645894
08
#649322
09
#650000
0$
1!
1'
#650819
13
#650924
0/
#651006
14
#653392
17
0:
#654318
00
#655000
0#
1$
0'
#655819
1/
#655884
05
#659000
06
#659008
10
#660000
1"
0!
1'
#660789
18
#660924
03
#661097
04
#664004
19
#665000
1#
0'
#665779
15
#668659
16
#670000
0$
1!
0#
1'
#670819
13
#670884
05
#670924
0/
#671006
14
#673392
1:
#673809
1;
#674000
06
#674318
00
#675000
1#
0'
#675779
15
#678659
16
#680000
0"
1$
0!
1'
#680819
1/
#680894
08
#680924
03
#681097
04
#684008
10
#684322
09
#685000
0$
0'
#685924
0/
#689318
00
#690000
0#
1"
1!
1'
#690789
18
#690819
13
#690884
05
#691006
14
#693392
0.
0:
1<
#694000
06
#694004
19
#694210
0=
#695000
1#
0"
0'
#695779
15
#695894
08
#696346
11
1&
#698659
16
#699322
09
#700000
0!
0#
1"
1'
#700789
18
#700884
05
#700924
03
#701097
04
#704000
06
#704004
19
#705000
1$
0"
0'
#705819
1/
#705894
08
#709008
10
#709322
09
#710000
1!
1"
1'
#710789
18
#710819
13
#711006
14
#713392
1.
07
0>
#714004
19
#715000
0"
0'
#715894
08
#716068
02
0%
#719322
09
#720000
0$
0!
1"
1'
#720789
18
#720924
03
0/
#721097
04
#724004
19
#724318
00
#725000
1$
0'
#725819
1/
#729008
10
#730000
1!
0"
0$
1'
#730819
13
#730894
08
#730924
0/
#731006
14
#733392
1:
#733793
0;
#734090
1=
#734318
00
#734322
09
#735000
1#
1$
0'
#735779
15
#735819
1/
#738659
16
#739008
10
#740000
0!
1"
0#
0$
1'
#740789
18
#740884
05
#740924
0/
03
#741097
04
#744000
06
#744004
19
#744318
00
#750000
1!
1#
0'
#750779
15
#750819
13
#751006
14
#753392
0.
0<
1>
#753659
16
#754202
1;
#754210
0=
#755000
0#
1'
#755884
05
#756042
12
1%
#756363
01
0&
#759000
06
#760000
0!
1#
0'
#760779
15
#760924
03
#761097
04
#763659
16
#770000
0"
1!
0#
1'
#770819
13
#770884
05
#770894
08
#771006
14
#773392
17
1<
0>
#773934
0;
#773942
1=
#774000
06
#774322
09
#775000
1$
0'
#775819
1/
#776068
02
0%
#776346
11
1&
#779008
10
#780000
1"
0!
0$
1'
#780789
18
#780924
0/
03
#781097
04
#784004
19
#784318
00
#790000
1!
0'
#790819
13
#791006
14
#793392
07
0<
1>
#794022
0=
#794025
1;
#796042
12
1%
#796363
01
0&
#800000
1#
1$
0!
1'
#800779
15
#800819
1/
#800924
03
#801097
04
#803659
16
#804008
10
#805000
0"
0$
0'
#805894
08
#805924
0/
#809318
00
#809322
09
#810000
1!
1$
1'
#810819
1/
13
#811006
14
#813392
17
0:
1<
0>
#814008
10
#815000
0$
0'
#815924
0/
#816068
02
0%
#816346
11
1&
#819318
00
#820000
0!
1$
1'
#820819
1/
#820924
03
#821097
04
#824008
10
#825000
0#
0'
#825884
05
#829000
06
#830000
1!
0$
1#
1'
#830779
15
#830819
13
#830924
0/
#831006
14
#833392
1.
07
#833659
16
#834318
00
#835000
1"
0#
0'
#835789
18
#835884
05
#839000
06
#839004
19
#840000
0!
1$
1'
#840819
1/
#840924
03
#841097
04
#844008
10
#845000
0"
0$
0'
#845894
08
#845924
0/
#849318
00
#849322
09
#850000
1!
1"
1$
1'
#850789
18
#850819
1/
13
#851006
14
#853392
0.
#854004
19
#854008
10
#854213
0;
#855000
1#
0'
#855779
15
#858659
16
#860000
0!
0$
0#
1'
#860884
05
#860924
0/
03
#861097
04
#864000
06
#864318
00
#870000
1!
0'
#870819
13
#871006
14
#873392
1:
0<
#873809
1;
#876363
01
0&
#880000
0"
1$
0!
1'
#880819
1/
#880894
08
#880924
03
#881097
04
#884008
10
#884322
09
#885000
0$
0'
#885924
0/
#889318
00
#890000
1#
1!
1'
#890779
15
#890819
13
#891006
14
#893392
0:
1<
#893659
16
#893871
0;
#895000
1"
0'
#895789
18
#896346
11
1&
#899004
19
#900000
1$
0!
1'
#900819
1/
#900924
03
#901097
04
#904008
10
#905000
0#
0"
0'
#905884
05
#905894
08
#909000
06
#909322
09
#910000
1!
1#
1'
#910779
15
#910819
13
#911006
14
#913392
1.
0<
#913659
16
#914108
1;
#915000
0$
1"
0'
#915789
18
#915924
0/
#916363
01
0&
#919004
19
#919318
00
#920000
0!
0#
0"
1'
#920884
05
#920894
08
#920924
03
#921097
04
#924000
06
#924322
09
#925000
1$
0'
#925819
1/
#929008
10
#930000
1!
1"
1'
#930789
18
#930819
13
#931006
14
#933392
1<
#934004
19
#935000
0"
0'
#935894
08
#936346
11
1&
#939322
09
#940000
1#
0!
1'
#940779
15
#940924
03
#941097
04
#943659
16
#945000
0$
1"
0'
#945789
18
#945924
0/
#949004
19
#949318
00
#950000
0#
1!
1$
1'
#950819
1/
13
#950884
05
#951006
14
#953392
0.
17
1:
#953942
1=
#954000
06
#954008
10
#954213
0;
#960000
0!
0'
#960924
03
#961097
04
#965000
0$
1'
#965924
0/
#969318
00
#970000
0"
1!
1$
0'
#970819
1/
13
#970894
08
#971006
14
#973392
07
0<
1>
#974008
10
#974022
0=
#974025
1;
#974322
09
#975000
1#
1"
1'
#975779
15
#975789
18
#976042
12
1%
#976363
01
0&
#978659
16
#979004
19
#980000
0!
0$
0#
0"
0'
#980884
05
#980894
08
#980924
0/
03
#981097
04
#984000
06
#984318
00
#984322
09
#985000
1$
1"
1'
#985789
18
#985819
1/
#989004
19
#989008
10
#990000
1!
0$
0"
0'
#990819
13
#990894
08
#990924
0/
#991006
14
#993392
1.
1<
0>
#994090
1=
#994119
0;
#994318
00
#994322
09
#995000
1$
1'
#995819
1/
#996068
02
0%
#996346
11
1&
#999008
10
